Ring-Tailed Lemur Project
…
Creating data frames for each individual animal ID

EV_full <- lemurs %>% filter(Focal_ID == "EV") 
KJ_full <- lemurs %>% filter(Focal_ID == "KJ")
MY_full <- lemurs %>% filter(Focal_ID == "MY") 
ZY_full <- lemurs %>% filter(Focal_ID == "ZY")

Transforming and Unnestting Each Animals Necessary Behavior Data

Everests Data

EV_1<- EV_full %>% transform(Behavior_Tally = strsplit(Behavior_Tally, "/")) %>% unnest(Behavior_Tally,keep_empty=TRUE)
EV_1

## # A tibble: 46 x 10
##    Focal_ID Point_Sample Nearest_Neighbor Point_Behavior Behavior_Tally
##    <chr>           <int> <chr>            <chr>          <chr>         
##  1 EV                  0 MY               RV/            SC_MY         
##  2 EV                  2 MY               SC_MY/         <NA>          
##  3 EV                  4 MY               SC_MY/         <NA>          
##  4 EV                  6 MY               GRM_MY/        <NA>          
##  5 EV                  8 MY               RV/            <NA>          
##  6 EV                 10 MY               GRM_MY/        <NA>          
##  7 EV                 12 MY               RPO/           <NA>          
##  8 EV                 14 MY               RPO/           <NA>          
##  9 EV                 16 MY               SGR/           <NA>          
## 10 EV                 18 ZY               RV/            <NA>          
## #  with 36 more rows, and 5 more variables: Ad_Libitum <chr>,
## #   Contact_ID <chr>, X.1_ID <chr>, X.5_ID <chr>, X.10_ID <chr>

EV_2<- EV_full %>% transform(Point_Behavior = strsplit(Point_Behavior, "/")) %>% unnest(Point_Behavior, keep_empty=TRUE)
EV_2

## # A tibble: 42 x 10
##    Focal_ID Point_Sample Nearest_Neighbor Point_Behavior Behavior_Tally
##    <chr>           <int> <chr>            <chr>          <chr>         
##  1 EV                  0 MY               RV             SC_MY/        
##  2 EV                  2 MY               SC_MY          ""            
##  3 EV                  4 MY               SC_MY          ""            
##  4 EV                  6 MY               GRM_MY         ""            
##  5 EV                  8 MY               RV             ""            
##  6 EV                 10 MY               GRM_MY         ""            
##  7 EV                 12 MY               RPO            ""            
##  8 EV                 14 MY               RPO            ""            
##  9 EV                 16 MY               SGR            ""            
## 10 EV                 18 ZY               RV             ""            
## #  with 32 more rows, and 5 more variables: Ad_Libitum <chr>,
## #   Contact_ID <chr>, X.1_ID <chr>, X.5_ID <chr>, X.10_ID <chr>

#don't need to do her ad_libitum data because all behavior entries were single entries

King Julians Data

KJ_1<- KJ_full %>% transform(Behavior_Tally = strsplit(Behavior_Tally, "/")) %>% unnest(Behavior_Tally,keep_empty=TRUE)
KJ_1

## # A tibble: 35 x 10
##    Focal_ID Point_Sample Nearest_Neighbor Point_Behavior Behavior_Tally
##    <chr>           <int> <chr>            <chr>          <chr>         
##  1 KJ                  0 EV               SGR/           <NA>          
##  2 KJ                  2 EV               SGR/           <NA>          
##  3 KJ                  4 EV               SGR/           <NA>          
##  4 KJ                  6 EV               RPO/           <NA>          
##  5 KJ                  8 MY               RPO/           <NA>          
##  6 KJ                 10 MY               RPO/           APA_MY        
##  7 KJ                 12 MY               RV/            GTA_MY        
##  8 KJ                 14 MY               SGR/           <NA>          
##  9 KJ                 16 MY               SGR/           <NA>          
## 10 KJ                 18 MY               SGR/           <NA>          
## #  with 25 more rows, and 5 more variables: Ad_Libitum <chr>,
## #   Contact_ID <chr>, X.1_ID <chr>, X.5_ID <chr>, X.10_ID <chr>
…
